…
On the `USArrests` data, show that this proportionality holds.

``` r
us_arrests <- USArrests %>% as_tibble() 
us_arrests
```

    ## # A tibble: 50 x 4
    ##    Murder Assault UrbanPop  Rape
    ##     <dbl>   <int>    <int> <dbl>
    ##  1   13.2     236       58  21.2
    ##  2   10       263       48  44.5
    ##  3    8.1     294       80  31  
    ##  4    8.8     190       50  19.5
    ##  5    9       276       91  40.6
    ##  6    7.9     204       78  38.7
    ##  7    3.3     110       77  11.1
    ##  8    5.9     238       72  15.8
    ##  9   15.4     335       80  31.9
    ## 10   17.4     211       60  25.8
    ## # ... with 40 more rows

First: center and scale the variables

``` r
(
  us_arrests_scaled <- 
    us_arrests %>% 
    mutate_all(~scale(.)[,1])
)
```

    ## # A tibble: 50 x 4
    ##     Murder Assault UrbanPop     Rape
    ##      <dbl>   <dbl>    <dbl>    <dbl>
    ##  1  1.24     0.783   -0.521 -0.00342
    ##  2  0.508    1.11    -1.21   2.48   
    ##  3  0.0716   1.48     0.999  1.04   
    ##  4  0.232    0.231   -1.07  -0.185  
    ##  5  0.278    1.26     1.76   2.07   
    ##  6  0.0257   0.399    0.861  1.86   
    ##  7 -1.03    -0.729    0.792 -1.08   
    ##  8 -0.433    0.807    0.446 -0.580  
    ##  9  1.75     1.97     0.999  1.14   
    ## 10  2.21     0.483   -0.383  0.488  
    ## # ... with 40 more rows
…
(b) Cut the dendrogram at a height that results in three distinct
clusters. Which states belong to which clusters?

``` r
tibble(
  states = rownames(USArrests),
  clusters = cutree(clust_us_arrest1, 3)
)
```

    ## # A tibble: 50 x 2
    ##    states      clusters
    ##    <chr>          <int>
    ##  1 Alabama            1
    ##  2 Alaska             1
    ##  3 Arizona            1
    ##  4 Arkansas           2
    ##  5 California         1
    ##  6 Colorado           2
    ##  7 Connecticut        3
    ##  8 Delaware           1
    ##  9 Florida            1
    ## 10 Georgia            2
    ## # ... with 40 more rows
…
(a) Generate a simulated data set with 20 observations in each of three
classes (i.e. 60 observations total), and 50 variables.

``` r
(
  simulated_data <-
    matrix(c(rnorm(20 * 50, mean = 1),
             rnorm(20 * 50, mean = 5),
             rnorm(20 * 50, mean = 10)), ncol = 50, byrow = TRUE) %>%
    as_tibble(.name_repair = ~ as.character(1:50)) %>%
    mutate(class = rep(1:3, each = 20))
)
```

    ## # A tibble: 60 x 51
    ##       `1`    `2`     `3`   `4`    `5`     `6`    `7`    `8`     `9`
    ##     <dbl>  <dbl>   <dbl> <dbl>  <dbl>   <dbl>  <dbl>  <dbl>   <dbl>
    ##  1 -1.12   1.11  -0.0995 1.30  -0.429 -0.0795 -0.282  2.72   0.742 
    ##  2 -0.688 -1.18   1.08   1.25   0.746  0.484   2.35   1.18   1.92  
    ##  3  1.71   0.459  1.86   0.696  1.93   1.16    0.229  1.95   1.21  
    ##  4  0.723  0.697  0.792  0.531  2.68  -0.0447  1.50   1.31   1.30  
    ##  5 -0.165  0.620  1.58   2.65   1.52   1.55    2.40   1.64   1.11  
    ##  6  1.06   1.55   0.550  1.51  -0.670  1.23   -0.382  1.09   2.65  
    ##  7  1.71   0.589  1.09   1.22   1.00   2.01    1.68   1.24  -0.0661
    ##  8  1.14   0.949 -0.0373 1.08   2.11   1.93   -0.359 -0.284  1.89  
    ##  9  1.00   0.639  0.637  1.61   2.85   1.28    2.84   1.12   2.64  
    ## 10  1.37   0.277  0.799  1.07  -0.214  0.554  -0.899  2.20   1.10  
    ## # ... with 50 more rows, and 42 more variables: `10` <dbl>, `11` <dbl>,
    ## #   `12` <dbl>, `13` <dbl>, `14` <dbl>, `15` <dbl>, `16` <dbl>,
    ## #   `17` <dbl>, `18` <dbl>, `19` <dbl>, `20` <dbl>, `21` <dbl>,
    ## #   `22` <dbl>, `23` <dbl>, `24` <dbl>, `25` <dbl>, `26` <dbl>,
    ## #   `27` <dbl>, `28` <dbl>, `29` <dbl>, `30` <dbl>, `31` <dbl>,
    ## #   `32` <dbl>, `33` <dbl>, `34` <dbl>, `35` <dbl>, `36` <dbl>,
    ## #   `37` <dbl>, `38` <dbl>, `39` <dbl>, `40` <dbl>, `41` <dbl>,
    ## #   `42` <dbl>, `43` <dbl>, `44` <dbl>, `45` <dbl>, `46` <dbl>,
    ## #   `47` <dbl>, `48` <dbl>, `49` <dbl>, `50` <dbl>, class <int>
…
