…
## Applied

#### 8\. This exercise relates to the `College` data set, which can be found in the file `College.csv`. It contains a number of variables for 777 different universities and colleges in the US. Descriptions of the variables can be found on page 54 of the book.

1.  Read the data into `R`.

<!-- end list -->

``` r
(college <- read_csv("College.csv"))
```

    ## # A tibble: 777 x 19
    ##    X1    Private  Apps Accept Enroll Top10perc Top25perc F.Undergrad
    ##    <chr> <chr>   <dbl>  <dbl>  <dbl>     <dbl>     <dbl>       <dbl>
    ##  1 Abil~ Yes      1660   1232    721        23        52        2885
    ##  2 Adel~ Yes      2186   1924    512        16        29        2683
    ##  3 Adri~ Yes      1428   1097    336        22        50        1036
    ##  4 Agne~ Yes       417    349    137        60        89         510
    ##  5 Alas~ Yes       193    146     55        16        44         249
    ##  6 Albe~ Yes       587    479    158        38        62         678
    ##  7 Albe~ Yes       353    340    103        17        45         416
    ##  8 Albi~ Yes      1899   1720    489        37        68        1594
    ##  9 Albr~ Yes      1038    839    227        30        63         973
    ## 10 Alde~ Yes       582    498    172        21        44         799
    ## # ... with 767 more rows, and 11 more variables: P.Undergrad <dbl>,
    ## #   Outstate <dbl>, Room.Board <dbl>, Books <dbl>, Personal <dbl>,
    ## #   PhD <dbl>, Terminal <dbl>, S.F.Ratio <dbl>, perc.alumni <dbl>,
    ## #   Expend <dbl>, Grad.Rate <dbl>
…
