…
Boston_train <- Boston %>% 
  sample_frac(size = 0.5)

Boston_test <- Boston %>% 
  anti_join(Boston_train)
```

    ## Joining, by = c("crim", "zn", "indus", "chas", "nox", "rm", "age", "dis", "rad", "tax", "ptratio", "black", "lstat", "medv", "crim01")

``` r
Boston
```

    ## # A tibble: 506 x 15
    ##       crim    zn indus  chas   nox    rm   age   dis   rad   tax ptratio
    ##      <dbl> <dbl> <dbl> <int> <dbl> <dbl> <dbl> <dbl> <int> <dbl>   <dbl>
    ##  1 0.00632  18    2.31     0 0.538  6.58  65.2  4.09     1   296    15.3
    ##  2 0.0273    0    7.07     0 0.469  6.42  78.9  4.97     2   242    17.8
    ##  3 0.0273    0    7.07     0 0.469  7.18  61.1  4.97     2   242    17.8
    ##  4 0.0324    0    2.18     0 0.458  7.00  45.8  6.06     3   222    18.7
    ##  5 0.0690    0    2.18     0 0.458  7.15  54.2  6.06     3   222    18.7
    ##  6 0.0298    0    2.18     0 0.458  6.43  58.7  6.06     3   222    18.7
    ##  7 0.0883   12.5  7.87     0 0.524  6.01  66.6  5.56     5   311    15.2
    ##  8 0.145    12.5  7.87     0 0.524  6.17  96.1  5.95     5   311    15.2
    ##  9 0.211    12.5  7.87     0 0.524  5.63 100    6.08     5   311    15.2
    ## 10 0.170    12.5  7.87     0 0.524  6.00  85.9  6.59     5   311    15.2
    ## # ... with 496 more rows, and 4 more variables: black <dbl>, lstat <dbl>,
    ## #   medv <dbl>, crim01 <dbl>
…
