…
(a) Generate a simulated data set as follows:

``` r
set.seed(1)

simulated <- 
  tibble(
    x = rnorm(100),
    y= x - 2*x^2 + rnorm (100) 
  )

simulated
```

    ## # A tibble: 100 x 2
    ##         x      y
    ##     <dbl>  <dbl>
    ##  1 -0.626 -2.03 
    ##  2  0.184  0.158
    ##  3 -0.836 -3.14 
    ##  4  1.60  -3.34 
    ##  5  0.330 -0.542
    ##  6 -0.820 -0.400
    ##  7  0.487  0.729
    ##  8  0.738  0.558
    ##  9  0.576  0.297
    ## 10 -0.305  1.19 
    ## # ... with 90 more rows
…
