…
df
```

    ## # A tibble: 100 x 11
    ##        y      x1      x2       x3      x4       x5      x6       x7
    ##    <dbl>   <dbl>   <dbl>    <dbl>   <dbl>    <dbl>   <dbl>    <dbl>
    ##  1 6.13   1.37   1.88     2.58e+0 3.53e+0  4.84e+0 6.64e+0  9.10e+0
    ##  2 1.01  -0.565  0.319   -1.80e-1 1.02e-1 -5.74e-2 3.24e-2 -1.83e-2
    ##  3 0.784  0.363  0.132    4.79e-2 1.74e-2  6.31e-3 2.29e-3  8.33e-4
    ##  4 4.32   0.633  0.401    2.53e-1 1.60e-1  1.02e-1 6.42e-2  4.07e-2
    ##  5 1.22   0.404  0.163    6.61e-2 2.67e-2  1.08e-2 4.37e-3  1.76e-3
    ##  6 0.898 -0.106  0.0113  -1.20e-3 1.27e-4 -1.35e-5 1.43e-6 -1.52e-7
    ##  7 5.10   1.51   2.28     3.45e+0 5.22e+0  7.89e+0 1.19e+1  1.80e+1
    ##  8 0.692 -0.0947 0.00896 -8.48e-4 8.03e-5 -7.60e-6 7.19e-7 -6.81e-8
    ##  9 8.25   2.02   4.07     8.22e+0 1.66e+1  3.35e+1 6.76e+1  1.36e+2
    ## 10 0.995 -0.0627 0.00393 -2.47e-4 1.55e-5 -9.70e-7 6.08e-8 -3.82e-9
    ## # ... with 90 more rows, and 3 more variables: x8 <dbl>, x9 <dbl>,
    ## #   x10 <dbl>
…
(b) Propose a model (or set of models) that seem to perform well on this
data set, and justify your answer. Make sure that you are evaluating
model performance using validation set error, crossvalidation, or some
other reasonable alternative, as opposed to using training error.

(c) Does your chosen model involve all of the features in the data set?
Why or why not?

``` r
(boston <- MASS::Boston %>% as_tibble())
```

    ## # A tibble: 506 x 14
    ##       crim    zn indus  chas   nox    rm   age   dis   rad   tax ptratio
    ##      <dbl> <dbl> <dbl> <int> <dbl> <dbl> <dbl> <dbl> <int> <dbl>   <dbl>
    ##  1 0.00632  18    2.31     0 0.538  6.58  65.2  4.09     1   296    15.3
    ##  2 0.0273    0    7.07     0 0.469  6.42  78.9  4.97     2   242    17.8
    ##  3 0.0273    0    7.07     0 0.469  7.18  61.1  4.97     2   242    17.8
    ##  4 0.0324    0    2.18     0 0.458  7.00  45.8  6.06     3   222    18.7
    ##  5 0.0690    0    2.18     0 0.458  7.15  54.2  6.06     3   222    18.7
    ##  6 0.0298    0    2.18     0 0.458  6.43  58.7  6.06     3   222    18.7
    ##  7 0.0883   12.5  7.87     0 0.524  6.01  66.6  5.56     5   311    15.2
    ##  8 0.145    12.5  7.87     0 0.524  6.17  96.1  5.95     5   311    15.2
    ##  9 0.211    12.5  7.87     0 0.524  5.63 100    6.08     5   311    15.2
    ## 10 0.170    12.5  7.87     0 0.524  6.00  85.9  6.59     5   311    15.2
    ## # ... with 496 more rows, and 3 more variables: black <dbl>, lstat <dbl>,
    ## #   medv <dbl>
…
