…
iter_df <- 
  iter_df %>% 
  mutate(coefs = map(iterations, fit_coefs, df = toy_df)) %>% 
  unnest(coefs) %>% 
  mutate(coef_name = rep(c("b0", "b1", "b2"), 1000))

(iter_df_pivoted <- iter_df %>% 
  pivot_wider(
    id_cols = iterations,
    names_from = coef_name,
    values_from = coefs
  ))
```

    ## # A tibble: 1,000 x 4
    ##    iterations      b0    b1    b2
    ##         <int>   <dbl> <dbl> <dbl>
    ##  1          1  3.31   40     1.82
    ##  2          2 -0.0335  2.09  1.82
    ##  3          3 -0.0552  2.09  1.51
    ##  4          4 -0.0554  2.09  1.51
    ##  5          5 -0.0554  2.09  1.51
    ##  6          6 -0.0554  2.09  1.51
    ##  7          7 -0.0554  2.09  1.51
    ##  8          8 -0.0554  2.09  1.51
    ##  9          9 -0.0554  2.09  1.51
    ## 10         10 -0.0554  2.09  1.51
    ## # ... with 990 more rows
…
Now let’s plot the results:

``` r
(
estimates_from_iteration <- 
  list_coefs %>% 
  enframe(name = "iteration") %>% 
  mutate(value = map(value, enframe, name = "coef", value = "estimate")) %>% 
  unnest(value)
)
```

    ## # A tibble: 100,100 x 3
    ##    iteration coef  estimate
    ##        <int> <chr>    <dbl>
    ##  1         1 b1          40
    ##  2         1 b2          40
    ##  3         1 b3          40
    ##  4         1 b4          40
    ##  5         1 b5          40
    ##  6         1 b6          40
    ##  7         1 b7          40
    ##  8         1 b8          40
    ##  9         1 b9          40
    ## 10         1 b10         40
    ## # ... with 100,090 more rows
…
Now let’s add the values obtained through multiple linear regression
(just one estimation in `lm()`):

``` r
(
coefs_lm <- 
  lm(y ~ ., df_sim) %>% 
  coef() %>% 
  enframe(name = "coef", value = "estimate") %>% 
  filter(coef != "(Intercept)") %>% 
  mutate(coef = str_replace(coef, "x", "b"))
)
```

    ## # A tibble: 100 x 2
    ##    coef  estimate
    ##    <chr>    <dbl>
    ##  1 b1       -68.8
    ##  2 b2        43.8
    ##  3 b3       115. 
    ##  4 b4        99.2
    ##  5 b5        47.4
    ##  6 b6        90.1
    ##  7 b7        75.0
    ##  8 b8       -87.8
    ##  9 b9        60.2
    ## 10 b10       46.6
    ## # ... with 90 more rows
…
    ## Joining, by = "coef"Joining, by = "coef"

    ## # A tibble: 100 x 4
    ##    coef   value estimate estimate_iteration
    ##    <chr>  <dbl>    <dbl>              <dbl>
    ##  1 b1    -26.4     -68.8              21.5 
    ##  2 b2     -5.47     43.8               4.81
    ##  3 b3     17.6     115.                6.77
    ##  4 b4     47.6      99.2              58.1 
    ##  5 b5     43.6      47.4              15.9 
    ##  6 b6     22.3      90.1              15.0 
    ##  7 b7     21.0      75.0             -30.5 
    ##  8 b8     68.0     -87.8              72.2 
    ##  9 b9     98.1      60.2             104.  
    ## 10 b10    63.7      46.6              63.0 
    ## # ... with 90 more rows
…
