…
``` r
agelims <- range(wage[["age"]])

age_grid <- seq(agelims[[1]], agelims[[2]])

predictions <- 
  tibble(
    age = seq(agelims[[1]], agelims[[2]])
  )
  
predictions %>% 
  add_predictions(model = fit)
```

    ## # A tibble: 63 x 2
    ##      age  pred
    ##    <int> <dbl>
    ##  1    18  51.9
    ##  2    19  58.5
    ##  3    20  64.6
    ##  4    21  70.2
    ##  5    22  75.4
    ##  6    23  80.1
    ##  7    24  84.5
    ##  8    25  88.5
    ##  9    26  92.1
    ## 10    27  95.4
    ## # ... with 53 more rows
…
