…
(
missed_appointments_health <- missed_appointments_health %>%
  rename(NoShow = `No-show`) %>% 
  mutate(
    Gender = ifelse(Gender == "F", 1, 0),
    NoShow = ifelse(NoShow == "Yes", 1, 0),
    ScheduledDay = ymd_hms(ScheduledDay),
    AppointmentDay = as_date(ymd_hms(AppointmentDay)),
    dif_sched_appoint =
      as.duration(AppointmentDay - as_date(ScheduledDay)) / ddays(1)
  )
)
```

    ## # A tibble: 110,527 x 15
    ##    PatientId AppointmentID Gender ScheduledDay        AppointmentDay   Age
    ##    <chr>     <chr>          <dbl> <dttm>              <date>         <dbl>
    ##  1 29872499~ 5642903            1 2016-04-29 18:38:08 2016-04-29        62
    ##  2 55899777~ 5642503            0 2016-04-29 16:08:27 2016-04-29        56
    ##  3 42629622~ 5642549            1 2016-04-29 16:19:04 2016-04-29        62
    ##  4 86795121~ 5642828            1 2016-04-29 17:29:31 2016-04-29         8
    ##  5 88411864~ 5642494            1 2016-04-29 16:07:23 2016-04-29        56
    ##  6 95985133~ 5626772            1 2016-04-27 08:36:51 2016-04-29        76
    ##  7 73368816~ 5630279            1 2016-04-27 15:05:12 2016-04-29        23
    ##  8 34498333~ 5630575            1 2016-04-27 15:39:58 2016-04-29        39
    ##  9 56394729~ 5638447            1 2016-04-29 08:02:16 2016-04-29        21
    ## 10 78124564~ 5629123            1 2016-04-27 12:48:25 2016-04-29        19
    ## # ... with 110,517 more rows, and 9 more variables: Neighbourhood <chr>,
    ## #   Scholarship <dbl>, Hipertension <dbl>, Diabetes <dbl>,
    ## #   Alcoholism <dbl>, Handcap <dbl>, SMS_received <dbl>, NoShow <dbl>,
    ## #   dif_sched_appoint <dbl>
…
