…
## 8.3.1 Fitting Classification Trees

We first analyze the `Carseats` data set. We first encode the continuous
variable `Sales` as a binary one.

``` r
( 
carseats <- ISLR::Carseats %>% 
  as_tibble() %>% 
  mutate(High = factor(ifelse(Sales <= 8, "No", "Yes")))
)
```

    ## # A tibble: 400 x 12
    ##    Sales CompPrice Income Advertising Population Price ShelveLoc   Age
    ##    <dbl>     <dbl>  <dbl>       <dbl>      <dbl> <dbl> <fct>     <dbl>
    ##  1  9.5        138     73          11        276   120 Bad          42
    ##  2 11.2        111     48          16        260    83 Good         65
    ##  3 10.1        113     35          10        269    80 Medium       59
    ##  4  7.4        117    100           4        466    97 Medium       55
    ##  5  4.15       141     64           3        340   128 Bad          38
    ##  6 10.8        124    113          13        501    72 Bad          78
    ##  7  6.63       115    105           0         45   108 Medium       71
    ##  8 11.8        136     81          15        425   120 Good         67
    ##  9  6.54       132    110           0        108   124 Medium       76
    ## 10  4.69       132    113           0        131   124 Medium       76
    ## # ... with 390 more rows, and 4 more variables: Education <dbl>,
    ## #   Urban <fct>, US <fct>, High <fct>
…
