…
``` r
sim_data_test <- 
  sim_data_test %>% 
  modelr::add_predictions(svm_lineal, var = "pred_linear") %>% 
  modelr::add_predictions(svm_polynomial, var = "pred_poly") %>% 
  modelr::add_predictions(svm_radial, var = "pred_radial")

sim_data_test
```

    ## # A tibble: 50 x 6
    ##         x1    x2 class pred_linear pred_poly pred_radial
    ##      <dbl> <dbl> <fct> <fct>       <fct>     <fct>      
    ##  1 -0.0338 3.16  red   red         red       red        
    ##  2  0.684  1.94  red   red         red       red        
    ##  3  0.775  1.05  red   red         red       red        
    ##  4  3.00   2.50  red   blue        red       red        
    ##  5  2.12   3.37  red   red         red       red        
    ##  6  1.86   3.91  red   red         red       red        
    ##  7  2.20   2.52  red   red         red       red        
    ##  8 -0.0100 3.06  red   red         red       red        
    ##  9  2.14   1.37  red   red         red       red        
    ## 10  0.0891 0.699 red   red         red       red        
    ## # ... with 40 more rows
…
``` r
sim_data2 <- 
  tibble(
    x1 = runif(500) - 0.5,
    x2 = runif(500) - 0.5,
    y = 1*(x1^2-x2^2 > 0)
  )

sim_data2
```

    ## # A tibble: 500 x 3
    ##          x1      x2     y
    ##       <dbl>   <dbl> <dbl>
    ##  1  0.00394  0.180      0
    ##  2 -0.357    0.330      1
    ##  3 -0.384    0.285      1
    ##  4 -0.402    0.407      0
    ##  5  0.392    0.268      1
    ##  6 -0.379    0.0232     1
    ##  7 -0.323   -0.0401     1
    ##  8 -0.136   -0.248      0
    ##  9 -0.483   -0.103      1
    ## 10  0.394    0.0508     1
    ## # ... with 490 more rows
…
