…
    ## Warning: The `x` argument of `as_tibble.matrix()` must have unique column names if `.name_repair` is omitted as of tibble 2.0.0.
    ## Using compatibility `.name_repair`.
    ## This warning is displayed once every 8 hours.
    ## Call `lifecycle::last_warnings()` to see where this warning was generated.

``` r
data_genes
```

    ## # A tibble: 63 x 2,309
    ##         V1    V2     V3      V4     V5      V6    V7      V8      V9    V10
    ##      <dbl> <dbl>  <dbl>   <dbl>  <dbl>   <dbl> <dbl>   <dbl>   <dbl>  <dbl>
    ##  1  0.773  -2.44 -0.483 -2.72   -1.22   0.828   1.34  0.0570  0.134   0.565
    ##  2 -0.0782 -2.42  0.413 -2.83   -0.626  0.0545  1.43 -0.120   0.457   0.159
    ##  3 -0.0845 -1.65 -0.241 -2.88   -0.889 -0.0275  1.16  0.0157  0.192   0.497
    ##  4  0.966  -2.38  0.625 -1.74   -0.845  0.950   1.09  0.820  -0.285   0.995
    ##  5  0.0757 -1.73  0.853  0.273  -1.84   0.328   1.25  0.771   0.0309  0.278
    ##  6  0.459  -2.88  0.136  0.405  -2.08   0.138   1.73  0.396   0.0458  0.352
    ##  7  0.0671 -1.62  0.520  0.238  -1.40   0.139   1.83 -0.305  -0.0529 -1.24 
    ##  8  0.0941 -1.80  0.703  0.206  -1.87   0.288   1.41  0.760  -0.0391  0.136
    ##  9  0.108  -1.94  0.600 -0.0511 -1.98   0.119   1.85  0.238  -0.0503 -0.253
    ## 10 -0.971  -2.35 -0.392 -0.141  -1.82  -0.304   1.50 -0.206   0.145  -1.57 
    ## # ... with 53 more rows, and 2,299 more variables: V11 <dbl>, V12 <dbl>,
    ## #   V13 <dbl>, V14 <dbl>, V15 <dbl>, V16 <dbl>, V17 <dbl>, V18 <dbl>,
    ## #   V19 <dbl>, V20 <dbl>, V21 <dbl>, V22 <dbl>, V23 <dbl>, V24 <dbl>,
    ## #   V25 <dbl>, V26 <dbl>, V27 <dbl>, V28 <dbl>, V29 <dbl>, V30 <dbl>,
    ## #   V31 <dbl>, V32 <dbl>, V33 <dbl>, V34 <dbl>, V35 <dbl>, V36 <dbl>,
    ## #   V37 <dbl>, V38 <dbl>, V39 <dbl>, V40 <dbl>, V41 <dbl>, V42 <dbl>,
    ## #   V43 <dbl>, V44 <dbl>, V45 <dbl>, V46 <dbl>, V47 <dbl>, V48 <dbl>,
    ## #   V49 <dbl>, V50 <dbl>, V51 <dbl>, V52 <dbl>, V53 <dbl>, V54 <dbl>,
    ## #   V55 <dbl>, V56 <dbl>, V57 <dbl>, V58 <dbl>, V59 <dbl>, V60 <dbl>,
…
